﻿{
  "profiles": {
    "Otus.Teaching.PromoCodeFactory.gRpcService": {
      "commandName": "Project",
      "launchBrowser": false,
      "applicationUrl": "http://localhost:5050",
      "environmentVariables": {
        "ASPNETCORE_ENVIRONMENT": "Development"
      }
    }
  }
}
